{
    "KPlugin": {
        "Category": "Appearance",
        "Description": "Closed windows fall into pieces",
        "Description[az]": "Pəncərəni hissələrə parçalayaraq bağlayır",
        "Description[ca]": "Les finestres tancades es trenquen en peces",
        "Description[cs]": "Uzavřená okna se rozpadnou na kousky",
        "Description[es]": "Las ventanas cerradas caen en pedazos",
        "Description[fr]": "Les fenêtres fermées tombent en morceaux",
        "Description[ia]": "Fenestras claudite cade in pecias",
        "Description[it]": "Le finestre cadono a pezzi alla chiusura",
        "Description[nl]": "Gesloten vensters vallen uit elkaar",
        "Description[sl]": "Zaprta okna se razletijo na koščke",
        "Description[sv]": "Stängda fönster faller i bitar",
        "Description[uk]": "Розпадання вікон на шматочки під час закриття вікон",
        "Description[vi]": "Cửa sổ bị đóng sẽ vỡ thành nhiều mảnh",
        "Description[x-test]": "xxClosed windows fall into piecesxx",
        "Description[zh_CN]": "窗口关闭时绘制粉碎飞散动画",
        "EnabledByDefault": false,
        "Id": "fallapart",
        "License": "GPL",
        "Name": "Fall Apart",
        "Name[az]": "Dağılma",
        "Name[ca]": "Trencament",
        "Name[cs]": "Rozpad",
        "Name[es]": "Desmoronar",
        "Name[fr]": "Tomber en morceaux",
        "Name[ia]": "Cade a pecias",
        "Name[it]": "Cadi a pezzi",
        "Name[nl]": "Uit elkaar vallen",
        "Name[sl]": "Razpad",
        "Name[sv]": "Fall sönder",
        "Name[uk]": "Розпадання",
        "Name[vi]": "Tan vỡ",
        "Name[x-test]": "xxFall Apartxx",
        "Name[zh_CN]": "窗口粉碎动画",
        "ServiceTypes": [
            "KWin/Effect"
        ]
    }
}
