{
    "KPlugin": {
        "Category": "Virtual Desktop Switching Animation",
        "Description": "Slide desktops when switching virtual desktops",
        "Description[az]": "Virtual İş Masalarını dəyişərkən iş masalarını sürüşdürür",
        "Description[ca]": "Llisca els escriptoris en canviar els escriptoris virtuals",
        "Description[es]": "Deslizar los escritorios al cambiar de escritorio virtual",
        "Description[fr]": "Faire glisser les bureaux lors du basculement des bureaux virtuels",
        "Description[ia]": "Glissa scriptorios quando on commuta scriptorios virtual",
        "Description[it]": "Fai scorrere i desktop quando cambi i desktop virtuali",
        "Description[nl]": "Schuift vensters tijdens het wisselen van virtuele bureaubladen",
        "Description[sl]": "Zdrsni namizja ob preklapljanju navideznih omizij",
        "Description[sv]": "Låt skrivbord skjutas vid byte av virtuella skrivbord",
        "Description[uk]": "Ковзання стільниць під час час перемикання стільниць",
        "Description[vi]": "Trượt qua các bàn làm việc khi chuyển bàn làm việc ảo",
        "Description[x-test]": "xxSlide desktops when switching virtual desktopsxx",
        "Description[zh_CN]": "虚拟桌面切换时呈现滑动动效",
        "EnabledByDefault": true,
        "Id": "slide",
        "License": "GPL",
        "Name": "Slide",
        "Name[az]": "Slayd",
        "Name[ca]": "Lliscament",
        "Name[cs]": "Sklouznutí",
        "Name[es]": "Deslizar",
        "Name[fr]": "Diapositive",
        "Name[ia]": "Glissa",
        "Name[it]": "Scivola",
        "Name[nl]": "Dia",
        "Name[pt]": "Deslizar",
        "Name[sl]": "Zdrsni",
        "Name[sv]": "Skjut",
        "Name[uk]": "Ковзання",
        "Name[vi]": "Trượt",
        "Name[x-test]": "xxSlidexx",
        "Name[zh_CN]": "滑动",
        "ServiceTypes": [
            "KWin/Effect"
        ]
    },
    "X-KDE-ConfigModule": "kwin_slide_config",
    "org.kde.kwin.effect": {
        "exclusiveGroup": "desktop-animations",
        "video": "https://files.kde.org/plasma/kwin/effect-videos/slide.ogv"
    }
}
