{
    "KPlugin": {
        "Category": "Appearance",
        "Description": "Highlights a screen edge when approaching",
        "Description[az]": "Ekranın kənarlarına yaxınlaşdıqda onları vurğulayaraq seçir",
        "Description[ca]": "Ressalta la vora de la pantalla en aproximar-se",
        "Description[cs]": "Zvýrazní hranu obrazovky při přiblížení k ní",
        "Description[es]": "Resalta el borde de la pantalla al acercarse a él",
        "Description[fr]": "Mets en valeur le bord de l'écran à l'approche",
        "Description[ia]": "Evidentia un margine de schermo quando on approxima se",
        "Description[it]": "Evidenzia il bordo dello schermo quando ti avvicini",
        "Description[nl]": "Accentueert een schermrand bij nadering",
        "Description[sl]": "Osvetli rob zaslona, ko se mu bliža",
        "Description[sv]": "Markerar en skärmkant när man närmar sig den",
        "Description[uk]": "Підсвічує край екрана у разі наближення вказівника",
        "Description[vi]": "Tô sáng cạnh màn hình khi tiến lại gần",
        "Description[x-test]": "xxHighlights a screen edge when approachingxx",
        "Description[zh_CN]": "接近屏幕边缘时高亮显示",
        "EnabledByDefault": true,
        "Id": "screenedge",
        "License": "GPL",
        "Name": "Screen Edge",
        "Name[az]": "Ekran kənarı",
        "Name[ca]": "Vora de la pantalla",
        "Name[cs]": "Hrana obrazovky",
        "Name[es]": "Borde de la pantalla",
        "Name[fr]": "Bord de l'écran",
        "Name[ia]": "Margines de schermo",
        "Name[it]": "Bordo dello schermo",
        "Name[nl]": "Schermrand",
        "Name[sl]": "Rob zaslona",
        "Name[sv]": "Skärmkant",
        "Name[uk]": "Край екрана",
        "Name[vi]": "Cạnh màn hình",
        "Name[x-test]": "xxScreen Edgexx",
        "Name[zh_CN]": "屏幕边缘高亮",
        "ServiceTypes": [
            "KWin/Effect"
        ]
    }
}
