{
    "KPlugin": {
        "Category": "Appearance",
        "Description": "Helper effect for startup feedback",
        "Description[az]": "İstifadəçi rəyinin başlanğıcı üçün yardımçı effekt",
        "Description[ca]": "Efecte auxiliar per a la retroacció en iniciar",
        "Description[cs]": "Pomocný efekt pro Odezvu při spouštění",
        "Description[es]": "Efecto auxiliar para la notificación de lanzamiento",
        "Description[fr]": "Effet d'assistance du témoin de démarrage ",
        "Description[ia]": "Effecto de adjutante pro retorno ab lanceamento",
        "Description[it]": "Effetto di assistenza per il segnale di avvio",
        "Description[nl]": "Effect van hulp bij terugkoppeling van opstarten",
        "Description[sl]": "Učinek pomočnika pri odzivu začetka",
        "Description[sv]": "Hjälpeffekt för gensvar vid programstart",
        "Description[uk]": "Допоміжний ефект перегляду повідомлень, що надсилаються програмою під час запуску",
        "Description[vi]": "Hiệu ứng trợ giúp cho phản hồi khởi động",
        "Description[x-test]": "xxHelper effect for startup feedbackxx",
        "Description[zh_CN]": "程序启动反馈辅助效果",
        "EnabledByDefault": true,
        "Id": "startupfeedback",
        "License": "GPL",
        "Name": "Startup Feedback",
        "Name[az]": "İstifadəçi rəyinin başlanğıcı",
        "Name[ca]": "Retroacció en iniciar",
        "Name[cs]": "Odezva při spouštění",
        "Name[es]": "Notificación de lanzamiento",
        "Name[fr]": "Témoin de démarrage",
        "Name[ia]": "Retorno ab lanceamento",
        "Name[it]": "Segnale di avvio",
        "Name[nl]": "Terugkoppeling van opstarten",
        "Name[sl]": "Povratni vpliv začetka",
        "Name[sv]": "Gensvar vid programstart",
        "Name[uk]": "Повідомлення під час запуску",
        "Name[vi]": "Phản hồi khởi động",
        "Name[x-test]": "xxStartup Feedbackxx",
        "Name[zh_CN]": "程序启动反馈",
        "ServiceTypes": [
            "KWin/Effect"
        ]
    },
    "org.kde.kwin.effect": {
        "internal": true
    }
}
